# Rhino

o object_1
v -16.11602783203125 5.257776260375977 -0.6746673583984375
v -15.68760204315186 5.759096145629883 0.5333709716796875
v -15.01028537750244 7.017986297607422 -0.389678955078125
v -14.97274112701416 3.963027954101563 0.1381988525390625
v -13.87682628631592 5.999910354614258 -1.355316162109375
v -13.85363864898682 4.111860275268555 -1.029052734375
v -13.18357372283936 6.81109619140625 0.599334716796875
v -13.16041660308838 4.923042297363281 0.9255828857421875
v -12.87134838104248 4.002086639404297 -1.094497680664063
v -12.06447124481201 6.959926605224609 -0.5679168701171875
v -12.02695560455322 3.904966354370117 -0.0400543212890625
v -11.9840612411499 7.796476364135742 -1.00433349609375
v -11.81478977203369 5.716329574584961 1.0830078125
v -11.34961032867432 5.163856506347656 -0.9630889892578125
v -10.92118549346924 5.665180206298828 0.2449493408203125
v -9.570500373840332 5.711999893188477 -2.822158813476563
v -9.296639442443848 2.346342086791992 0.55523681640625
v -8.997279167175293 1.068418502807617 -1.669235229492188
v -8.328852653503418 3.432165145874023 -1.503448486328125
v -8.193587303161621 2.416919708251953 -2.921432495117188
v -7.909608840942383 2.343664169311523 -1.8582763671875
v -7.860923767089844 8.485763549804688 0.7011260986328125
v -6.945652961730957 1.854507446289063 -0.4743499755859375
v -6.72673225402832 0.2118244171142578 -2.768692016601563
v -6.473894119262695 8.483089447021484 -1.712371826171875
v -6.200061798095703 5.117424011230469 1.665008544921875
v -5.95546817779541 -0.1357879638671875 -1.256301879882813
v -5.645260810852051 4.036489486694336 -2.500457763671875
v -4.873996734619141 3.688873291015625 -0.988067626953125
v -4.824200630187988 2.234504699707031 -2.226394653320313
v -4.65507698059082 2.046195983886719 -3.282424926757813
v -3.955772399902344 5.113094329833984 -2.240158081054688
v -3.786501884460449 3.032947540283203 -0.1528167724609375
v -3.626763343811035 7.35521125793457 -2.104705810546875
v -3.40714168548584 1.483781814575195 -0.8353271484375
v -3.398340225219727 4.54796028137207 0.7122650146484375
v -3.271877288818359 0.468536376953125 -2.253311157226563
v -2.899212837219238 6.827341079711914 -0.0626373291015625
v -2.603449821472168 2.832284927368164 -2.0875244140625
v -0.3695621490478516 4.542112350463867 -4.557937622070313
v 0 0 0
v 1.871867656707764 -0.003612518310546875 -3.25714111328125
v 1.937558174133301 8.285438537597656 0.1968994140625
v 3.809422969818115 8.281822204589844 -3.06024169921875
v 4.178981781005859 3.739709854125977 1.497695922851563
v 4.776872634887695 5.759702682495117 0.1465911865234375
v 5.024427890777588 4.001411437988281 1.965377807617188
v 5.693965911865234 8.253612518310547 -1.428573608398438
v 5.813794612884522 7.353187561035156 -0.5313873291015625
v 5.997471809387207 7.259754180908203 1.991165161132813
v 6.105308532714844 6.62236213684082 -1.484207153320313
v 6.906740188598633 2.74785041809082 0.1443328857421875
v 6.927310466766357 8.837284088134766 -0.5742340087890625
v 7.207754135131836 3.733861923217773 -3.772506713867188
v 7.399030685424805 7.654769897460938 -2.115936279296875
v 7.436194896697998 0.9266109466552734 -0.955535888671875
v 7.592912673950195 6.197849273681641 -0.6642913818359375
v 7.907047271728516 9.023660659790039 -1.553543090820313
v 8.100926399230957 7.566741943359375 -0.1018829345703125
v 8.481101989746094 8.020004272460938 0.186065673828125
v 8.572652816772461 6.384225845336914 -1.643600463867188
v 8.633641242980957 6.047323226928711 -0.8338470458984375
v 8.881661415100098 5.174951553344727 3.12890625
v 9.043063163757324 5.231472015380859 -0.955322265625
v 9.394659996032715 8.599147796630859 -0.733612060546875
v 9.443619728088379 2.386415481567383 1.987518310546875
v 9.686168670654297 7.868316650390625 -1.686431884765625
v 9.806002616882324 6.967893600463867 -0.7892608642578125
v 11.01798152923584 7.658573150634766 2.029251098632813
v 11.64369201660156 5.926437377929688 -0.2778778076171875
v 11.64369201660156 4.180713653564453 -2.104751586914063
v 11.92724704742432 3.14666748046875 0.1824188232421875
v 12.90029621124268 6.405008316040039 0.2082061767578125
v 13.14784812927246 4.64671516418457 2.026992797851563
v 13.20671081542969 2.768350601196289 -0.2778778076171875
v 13.20671081542969 7.338802337646484 -2.104751586914063
v 15.73567199707031 5.05357551574707 0.851165771484375
v 15.73567199707031 7.878292083740234 -0.2778778076171875
v 15.73567199707031 2.228860855102539 -2.104751586914063
v 15.73567199707031 5.05357551574707 -3.233810424804688
v 15.98773956298828 5.8970947265625 0.7315216064453125
v 17.94901657104492 3.681831359863281 3.646102905273438
v 18.11820220947266 0.9068946838378906 0.8150177001953125
v 18.26463317871094 2.768350601196289 -0.2778778076171875
v 18.2646369934082 7.338802337646484 -2.104751586914063
v 19.82765197753906 5.926437377929688 -0.2778778076171875
v 19.82765197753906 4.180713653564453 -2.104751586914063
v 20.46045303344727 8.472515106201172 2.936080932617188
v 20.73424530029297 3.982688903808594 -1.644683837890625
v 22.18180656433106 8.658456802368164 -0.3337860107421875
v 23.90766334533691 0.3982486724853516 3.071182250976563
v 25.35522079467773 5.074012756347656 4.382095336914063
v 25.6290168762207 0.5841884613037109 -0.19866943359375
v 27.26037979125977 7.590030670166016 -0.1171875
v 27.78223037719727 3.579208374023438 1.886322021484375
v 27.97126770019531 8.149808883666992 1.922378540039063
v 28.14044952392578 5.374870300292969 -0.9087066650390625
v 28.71366500854492 5.948545455932617 2.042495727539063
v 28.77438354492188 2.317258834838867 0.620819091796875
v 28.83903121948242 3.892341613769531 -0.0553131103515625
v 28.88505935668945 1.283670425415039 2.033645629882813
v 29.8333625793457 4.620471954345703 0.775848388671875
v 30.01239776611328 2.94810676574707 3.06182861328125
v 30.10172271728516 3.159608840942383 2.005874633789063
v 30.57461166381836 9.498390197753906 1.516372680664063
v 30.59848022460938 5.010379791259766 2.284469604492188
v 30.77749252319336 6.171474456787109 -1.8779296875
v 31.61773681640625 0.9061717987060547 1.014205932617188
v 31.85011672973633 9.63616943359375 -0.90655517578125
v 32.20381546020508 2.968448638916016 0.236846923828125
v 32.38285827636719 1.296083450317383 2.5228271484375
v 33.12895965576172 3.515443801879883 1.616485595703125
v 33.33116149902344 4.63288688659668 1.265029907226563
v 33.44183349609375 3.599294662475586 2.6778564453125
v 34.20158767700195 6.980134963989258 2.587860107421875
v 34.40446472167969 3.653219223022461 -0.8064422607421875
v 34.43399047851563 2.337345123291016 1.412353515625
v 35.42277908325195 7.072847366333008 -0.48858642578125
v 35.99020385742188 6.596168518066406 0.713287353515625
v 36.14004898071289 9.259265899658203 0.765228271484375
v 36.26541137695313 7.203065872192383 -1.332565307617188
v 36.35468292236328 8.439785003662109 0.323486328125
v 36.85427856445313 5.409708023071289 -0.2216949462890625
v 37.44400787353516 8.392778396606445 -0.852386474609375
v 37.71869277954102 5.561580657958984 0.8271026611328125
v 37.75278091430664 6.520103454589844 -1.189346313476563
v 38.36213684082031 7.621465682983398 1.092269897460938
v 38.6709098815918 5.74879264831543 0.75531005859375
v 39.26063919067383 8.731861114501953 0.1246337890625
v 39.76023483276367 5.7017822265625 -0.420562744140625
v 40.12471008300781 7.545400619506836 -0.81036376953125
v 40.692138671875 7.068723678588867 0.391510009765625
vt 0.9882680177688599 0.8003110289573669
vt 0.9882680177688599 0.7580699920654297
vt 0.9519069790840149 0.7783910036087036
vt 0.5081620216369629 0.7924860119819641
vt 0.4751800000667572 0.7820720076560974
vt 0.4714590013027191 0.8135470151901245
vt 0.9562259912490845 0.03826000168919563
vt 0.9577569961547852 0.06819800287485123
vt 0.9926599860191345 0.0585549995303154
vt 0.9882680177688599 0.8003110289573669
vt 0.9519069790840149 0.7783910036087036
vt 0.9530720114707947 0.8163939714431763
vt 0.9562259912490845 0.03826000168919563
vt 0.9926599860191345 0.0585549995303154
vt 0.9926599860191345 0.01640599966049194
vt 0.3568029999732971 0.6043149828910828
vt 0.3195450007915497 0.6020810008049011
vt 0.3444370031356812 0.6363000273704529
vt 0.1874160021543503 0.9696919918060303
vt 0.1673399955034256 0.9557470083236694
vt 0.1493899971246719 0.985584020614624
vt 0.9926599860191345 0.01640599966049194
vt 0.9577569961547852 0
vt 0.9562259912490845 0.03826000168919563
vt 0.9522809982299805 0.9348359704017639
vt 0.9879239797592163 0.9220219850540161
vt 0.9516919851303101 0.9007800221443176
vt 0.5081620216369629 0.7924860119819641
vt 0.4714590013027191 0.8135470151901245
vt 0.5081620216369629 0.834941029548645
vt 0.9879239797592163 0.9220219850540161
vt 0.9879239797592163 0.8792889714241028
vt 0.9516919851303101 0.9007800221443176
vt 0.4714590013027191 0.8135470151901245
vt 0.4751800000667572 0.8507660031318665
vt 0.5081620216369629 0.834941029548645
vt 0.1493899971246719 0.985584020614624
vt 0.1673399955034256 0.9557470083236694
vt 0.125889003276825 0.9537339806556702
vt 0.3847129940986633 0.6229259967803955
vt 0.3568029999732971 0.6043149828910828
vt 0.3444370031356812 0.6363000273704529
vt 0.9516919851303101 0.9007800221443176
vt 0.9879239797592163 0.8792889714241028
vt 0.9522809982299805 0.8656929731369019
vt 0.3847129940986633 0.5804409980773926
vt 0.34443798661232 0.5675579905509949
vt 0.3568029999732971 0.6043149828910828
vt 0.1874160021543503 0.9280189871788025
vt 0.1493899971246719 0.9181569814682007
vt 0.1673399955034256 0.9557470083236694
vt 0.1673399955034256 0.9557470083236694
vt 0.1493899971246719 0.9181569814682007
vt 0.125889003276825 0.9537339806556702
vt 0.9882680177688599 0.7580699920654297
vt 0.9530709981918335 0.7480469942092896
vt 0.9519069790840149 0.7783910036087036
vt 0.34443798661232 0.5675579905509949
vt 0.3195450007915497 0.6020810008049011
vt 0.3568029999732971 0.6043149828910828
vt 0.7740539908409119 0.2478549927473068
vt 0.7740539908409119 0.3467060029506683
vt 0.8568819761276245 0.2988829910755158
vt 0.7740539908409119 0.3467060029506683
vt 0.859699010848999 0.3742380142211914
vt 0.8568819761276245 0.2988829910755158
vt 0.5418429970741272 0.8838580250740051
vt 0.5516960024833679 0.9209380149841309
vt 0.589102029800415 0.8986129760742188
vt 0.9949470162391663 0.2825649976730347
vt 0.9949470162391663 0.2327509969472885
vt 0.9528070092201233 0.2592869997024536
vt 0.5126370191574097 0.9248089790344238
vt 0.5516960024833679 0.9209380149841309
vt 0.5418429970741272 0.8838580250740051
vt 0.9949470162391663 0.2327509969472885
vt 0.9513739943504334 0.2142920047044754
vt 0.9528070092201233 0.2592869997024536
vt 0.7497069835662842 0.9285100102424622
vt 0.7523049712181091 0.885998010635376
vt 0.7080050110816956 0.9026139974594116
vt 0.8947160243988037 0.3117739856243134
vt 0.9513739943504334 0.2973990142345429
vt 0.9014689922332764 0.2724510133266449
vt 0 0.9699259996414185
vt 0.05085799843072891 0.9410449862480164
vt 0 0.9079769849777222
vt 0.9555950164794922 0.05101900175213814
vt 0.9030910134315491 0.08206400275230408
vt 0.9562259912490845 0.1009780019521713
vt 0.05085799843072891 0.9410449862480164
vt 0.0557439997792244 0.8864949941635132
vt 0 0.9079769849777222
vt 0.0557439997792244 0.9867299795150757
vt 0.05085799843072891 0.9410449862480164
vt 0 0.9699259996414185
vt 0.07781100273132324 0
vt 0.1181429997086525 0.1131310015916824
vt 0.2037139981985092 0.04045600071549416
vt 0.5176349878311157 0.2595860064029694
vt 0.5176339745521545 0.3929910063743591
vt 0.629414975643158 0.3284519910812378
vt 0 0.108424998819828
vt 0.1181429997086525 0.1131310015916824
vt 0.07781100273132324 0
vt 0.3967309892177582 0.3128489851951599
vt 0.3804889917373657 0.2142920047044754
vt 0.2774400115013123 0.256195992231369
vt 0.9392060041427612 0.6206799745559692
vt 0.8676639795303345 0.6656789779663086
vt 0.9392060041427612 0.705469012260437
vt 0.2537040114402771 0.7816489934921265
vt 0.2769030034542084 0.7192519903182983
vt 0.2037139981985092 0.7131199836730957
vt 0.5176339745521545 0.3929910063743591
vt 0.6332169771194458 0.4301460087299347
vt 0.629414975643158 0.3284519910812378
vt 0.3721030056476593 0.8637359738349915
vt 0.2884230017662048 0.9127609729766846
vt 0.3721979856491089 0.9420149922370911
vt 0.6940230131149292 0.7183210253715515
vt 0.77497798204422 0.7480469942092896
vt 0.77497798204422 0.6619639992713928
vt 0.575963020324707 0
vt 0.6058480143547058 0.08382900059223175
vt 0.6692550182342529 0.02997799962759018
vt 0.6865839958190918 0.6199849843978882
vt 0.6940230131149292 0.7183210253715515
vt 0.77497798204422 0.6619639992713928
vt 0.6865839958190918 0.6199849843978882
vt 0.6319540143013001 0.6801220178604126
vt 0.6940230131149292 0.7183210253715515
vt 0.7740539908409119 0.2478549927473068
vt 0.8568819761276245 0.2988829910755158
vt 0.859699010848999 0.2142920047044754
vt 0.5183050036430359 0.08034200221300125
vt 0.6058480143547058 0.08382900059223175
vt 0.575963020324707 0
vt 0.1928460001945496 0.5186870098114014
vt 0.1130580008029938 0.5640270113945007
vt 0.2026460021734238 0.5909510254859924
vt 0.2026460021734238 0.4318050146102905
vt 0.1130580008029938 0.4656699895858765
vt 0.1928460001945496 0.5186870098114014
vt 0.5183050036430359 0.08034200221300125
vt 0.575963020324707 0.1599750071763992
vt 0.6058480143547058 0.08382900059223175
vt 0.1928460001945496 0.5186870098114014
vt 0.1130580008029938 0.4656699895858765
vt 0.1130580008029938 0.5640270113945007
vt 0.77497798204422 0.6619639992713928
vt 0.7629420161247253 0.5889340043067932
vt 0.6865839958190918 0.6199849843978882
vt 0.6058480143547058 0.08382900059223175
vt 0.6692550182342529 0.1288470029830933
vt 0.6692550182342529 0.02997799962759018
vt 0.575963020324707 0.1599750071763992
vt 0.6692550182342529 0.1288470029830933
vt 0.6058480143547058 0.08382900059223175
vt 0.389180988073349 0.8268569707870483
vt 0.3848600089550018 0.9161829948425293
vt 0.4714590013027191 0.8796380162239075
vt 0.3721979856491089 0.7816489934921265
vt 0.2884239852428436 0.8136489987373352
vt 0.3721030056476593 0.8637359738349915
vt 0.4714590013027191 0.7820720076560974
vt 0.389180988073349 0.8268569707870483
vt 0.4714590013027191 0.8796380162239075
vt 0.2884239852428436 0.8136489987373352
vt 0.2884230017662048 0.9127609729766846
vt 0.3721030056476593 0.8637359738349915
vt 0.3784390091896057 0.6737759709358215
vt 0.3385649919509888 0.7006949782371521
vt 0.3847129940986633 0.7174620032310486
vt 0.7080050110816956 0.9529740214347839
vt 0.7523049712181091 0.9674839973449707
vt 0.7497069835662842 0.9285100102424622
vt 0.7080050110816956 0.9026139974594116
vt 0.7080050110816956 0.9529740214347839
vt 0.7497069835662842 0.9285100102424622
vt 0.9003980159759522 0.1826059967279434
vt 0.9096620082855225 0.1414929926395416
vt 0.8712739944458008 0.1418370008468628
vt 0.9003980159759522 0.1826059967279434
vt 0.9475229978561401 0.1669429987668991
vt 0.9096620082855225 0.1414929926395416
vt 0.5901039838790894 0.8838580250740051
vt 0.589102029800415 0.9267119765281677
vt 0.631941020488739 0.9010649919509888
vt 0.9475229978561401 0.1669429987668991
vt 0.9475229978561401 0.1164939999580383
vt 0.9096620082855225 0.1414929926395416
vt 0.5126370191574097 0.9248089790344238
vt 0.5418440103530884 0.9648730158805847
vt 0.5516960024833679 0.9209380149841309
vt 0.9096620082855225 0.1414929926395416
vt 0.9475229978561401 0.1164939999580383
vt 0.9003990292549133 0.1009780019521713
vt 0.631941020488739 0.9010649919509888
vt 0.589102029800415 0.9267119765281677
vt 0.631941020488739 0.9513840079307556
vt 0.3847129940986633 0.6363000273704529
vt 0.33856600522995 0.650534987449646
vt 0.3784390091896057 0.6737759709358215
vt 0.589102029800415 0.9267119765281677
vt 0.5901049971580505 0.9652770161628723
vt 0.631941020488739 0.9513840079307556
vt 0.5418440103530884 0.9648730158805847
vt 0.589102029800415 0.9486830234527588
vt 0.5516960024833679 0.9209380149841309
vt 0.5516960024833679 0.9209380149841309
vt 0.589102029800415 0.9486830234527588
vt 0.589102029800415 0.8986129760742188
vt 0.33856600522995 0.650534987449646
vt 0.3385649919509888 0.7006949782371521
vt 0.3784390091896057 0.6737759709358215
vt 0.548803985118866 0.7845649719238281
vt 0.5126370191574097 0.8334490060806274
vt 0.5686879754066467 0.8286030292510986
vt 0.9562259912490845 0
vt 0.9030910134315491 0.01965500041842461
vt 0.9555950164794922 0.05101900175213814
vt 0.9465540051460266 0.3588629961013794
vt 1 0.3281779885292053
vt 0.9503409862518311 0.3117739856243134
vt 0.9465540051460266 0.3588629961013794
vt 1 0.3903520107269287
vt 1 0.3281779885292053
vt 0.9465540051460266 0.3588629961013794
vt 0.9503409862518311 0.4123710095882416
vt 1 0.3903520107269287
vt 0.60732501745224 0.8047620058059692
vt 0.5686879754066467 0.8286030292510986
vt 0.60732501745224 0.8661289811134338
vt 0.4407800137996674 0.9161829948425293
vt 0.390082985162735 0.9436929821968079
vt 0.4407800137996674 0.9775729775428772
vt 0.9555950164794922 0.05101900175213814
vt 0.9030910134315491 0.01965500041842461
vt 0.9030910134315491 0.08206400275230408
vt 0.4407800137996674 0.9775729775428772
vt 0.390082985162735 0.9436929821968079
vt 0.3848600089550018 0.999908983707428
vt 0.60732501745224 0.8661289811134338
vt 0.5686879754066467 0.8286030292510986
vt 0.5488049983978272 0.8838580250740051
vt 0.859699010848999 0.2604120075702667
vt 0.9014689922332764 0.2724510133266449
vt 0.8947160243988037 0.2142920047044754
vt 0.5686879754066467 0.8286030292510986
vt 0.5126370191574097 0.8334490060806274
vt 0.5488049983978272 0.8838580250740051
vt 0.9030910134315491 0.01965500041842461
vt 0.8712739944458008 0.0502300001680851
vt 0.9030910134315491 0.08206400275230408
vt 0.9513739943504334 0.2973990142345429
vt 0.9513739943504334 0.2371509969234467
vt 0.9014689922332764 0.2724510133266449
vt 0.9014689922332764 0.2724510133266449
vt 0.9513739943504334 0.2371509969234467
vt 0.8947160243988037 0.2142920047044754
vt 0.1129299998283386 0.5425840020179749
vt 0 0.6087459921836853
vt 0.1130580008029938 0.6482250094413757
vt 0.2874790132045746 0.3889060020446777
vt 0.3967309892177582 0.4290220141410828
vt 0.3967309892177582 0.3128489851951599
vt 0.2774400115013123 0.256195992231369
vt 0.2874790132045746 0.3889060020446777
vt 0.3967309892177582 0.3128489851951599
vt 0.2774400115013123 0.256195992231369
vt 0.2037139981985092 0.3373540043830872
vt 0.2874790132045746 0.3889060020446777
vt 0.5176349878311157 0.2595860064029694
vt 0.629414975643158 0.3284519910812378
vt 0.6332169771194458 0.2142920047044754
vt 0.5044080018997192 0.3315429985523224
vt 0.3967309892177582 0.3927310109138489
vt 0.5176339745521545 0.4290669858455658
vt 0.5176339745521545 0.2142920047044754
vt 0.3967309892177582 0.2599940001964569
vt 0.5044080018997192 0.3315429985523224
vt 0 0.108424998819828
vt 0.07781200110912323 0.2158930003643036
vt 0.1181429997086525 0.1131310015916824
vt 0.5044080018997192 0.3315429985523224
vt 0.3967309892177582 0.2599940001964569
vt 0.3967309892177582 0.3927310109138489
vt 0.1181429997086525 0.1131310015916824
vt 0.2037139981985092 0.1738860011100769
vt 0.2037139981985092 0.04045600071549416
vt 0.2037139981985092 0.6443219780921936
vt 0.125889003276825 0.6741340160369873
vt 0.1944160014390945 0.7209159731864929
vt 0.4946050047874451 0.6444479823112488
vt 0.4332869946956635 0.678292989730835
vt 0.5116440057754517 0.7116190195083618
vt 0.07781200110912323 0.2158930003643036
vt 0.2037139981985092 0.1738860011100769
vt 0.1181429997086525 0.1131310015916824
vt 0.2537040114402771 0.7816489934921265
vt 0.3345899879932404 0.7552070021629334
vt 0.2769030034542084 0.7192519903182983
vt 0.5582119822502136 0.6729999780654907
vt 0.6319540143013001 0.7137860059738159
vt 0.6287320256233215 0.6459590196609497
vt 0.6750869750976563 0.06043900176882744
vt 0.6692550182342529 0.180988997220993
vt 0.7861239910125732 0.1316699981689453
vt 0.5582119822502136 0.6729999780654907
vt 0.5602030158042908 0.7586640119552612
vt 0.6319540143013001 0.7137860059738159
vt 0.5582119822502136 0.6729999780654907
vt 0.5126370191574097 0.7185720205307007
vt 0.5602030158042908 0.7586640119552612
vt 0.5116440057754517 0.7116190195083618
vt 0.4438180029392242 0.7633500099182129
vt 0.5116440057754517 0.7820720076560974
vt 0.1130580008029938 0.4318050146102905
vt 9.999999974752427e-07 0.4749909937381744
vt 0.1129299998283386 0.5425840020179749
vt 0.5602030158042908 0.7586640119552612
vt 0.6319540143013001 0.7845649719238281
vt 0.6319540143013001 0.7137860059738159
vt 0.8792679905891419 0.9823799729347229
vt 0.9516919851303101 0.9425299763679504
vt 0.8793569803237915 0.8978800177574158
vt 0.5116440057754517 0.7116190195083618
vt 0.4332869946956635 0.678292989730835
vt 0.4438180029392242 0.7633500099182129
vt 0.8793569803237915 0.8978800177574158
vt 0.9516919851303101 0.9425299763679504
vt 0.9516919851303101 0.8656929731369019
vt 0.7861239910125732 0
vt 0.6750869750976563 0.06043900176882744
vt 0.7861239910125732 0.1316699981689453
vt 0.2037139981985092 0.7811059951782227
vt 0.1944160014390945 0.7209159731864929
vt 0.125889003276825 0.7586709856987
vt 0.2037139981985092 0.7131199836730957
vt 0.2769030034542084 0.7192519903182983
vt 0.2537040114402771 0.6443219780921936
vt 0.1944160014390945 0.7209159731864929
vt 0.125889003276825 0.6741340160369873
vt 0.125889003276825 0.7586709856987
vt 0.4332869946956635 0.678292989730835
vt 0.3848600089550018 0.7281500101089478
vt 0.4438180029392242 0.7633500099182129
vt 0.3345899879932404 0.7552070021629334
vt 0.3345899879932404 0.6703339815139771
vt 0.2769030034542084 0.7192519903182983
vt 0.2769030034542084 0.7192519903182983
vt 0.3345899879932404 0.6703339815139771
vt 0.2537040114402771 0.6443219780921936
vt 9.999999974752427e-07 0.4749909937381744
vt 0 0.6087459921836853
vt 0.1129299998283386 0.5425840020179749
vt 0.8650630116462708 0.5896810293197632
vt 0.8676639795303345 0.6656789779663086
vt 0.9392060041427612 0.6206799745559692
vt 0.7740539908409119 0.2977449893951416
vt 0.6870120167732239 0.3422479927539825
vt 0.7658799886703491 0.3742800056934357
vt 0.7786129713058472 0.4566009938716888
vt 0.8613420128822327 0.5037019848823547
vt 0.8644430041313171 0.4301460087299347
vt 0.8735859990119934 0.8862659931182861
vt 0.829364001750946 0.9029210209846497
vt 0.8711190223693848 0.9288229942321777
vt 0.9930220246315002 0.4980559945106506
vt 0.9502589702606201 0.4736489951610565
vt 0.9509389996528626 0.5113919973373413
vt 0.9930220246315002 0.4478429853916168
vt 0.9509389996528626 0.4301460087299347
vt 0.9502589702606201 0.4736489951610565
vt 0.7576079964637756 0.9283639788627625
vt 0.7850160002708435 0.9665420055389404
vt 0.7876930236816406 0.9210429787635803
vt 0.9930220246315002 0.4478429853916168
vt 0.9502589702606201 0.4736489951610565
vt 0.9930220246315002 0.4980559945106506
vt 0.9465540051460266 0.3576000034809113
vt 0.8928750157356262 0.3288240134716034
vt 0.894303023815155 0.3907960057258606
vt 0.8972219824790955 0.5309860110282898
vt 0.9502589702606201 0.5131329894065857
vt 0.9260470271110535 0.4793460071086884
vt 0.944242000579834 0.3117739856243134
vt 0.8928750157356262 0.3288240134716034
vt 0.9465540051460266 0.3576000034809113
vt 0.9465540051460266 0.3576000034809113
vt 0.894303023815155 0.3907960057258606
vt 0.9465540051460266 0.4120450019836426
vt 0.9392060041427612 0.6427670121192932
vt 0.9430429935455322 0.6903870105743408
vt 0.9926580190658569 0.6735510230064392
vt 0.2037139981985092 0.464724987745285
vt 0.2037139981985092 0.5977879762649536
vt 0.3153609931468964 0.5282890200614929
vt 0.1900659948587418 0.3285180032253265
vt 0.07259900122880936 0.3885760009288788
vt 0.1790339946746826 0.4318050146102905
vt 0.07941699773073196 0.2551369965076447
vt 0 0.3130710124969482
vt 0.07259900122880936 0.3885760009288788
vt 0.07941699773073196 0.2551369965076447
vt 0.07259900122880936 0.3885760009288788
vt 0.1900659948587418 0.3285180032253265
vt 0.8040779829025269 0.7752180099487305
vt 0.7576079964637756 0.8240900039672852
vt 0.808355987071991 0.8606430292129517
vt 0.6888800263404846 0.8221660256385803
vt 0.7576079964637756 0.7767630219459534
vt 0.6799499988555908 0.7480469942092896
vt 0.2037139981985092 0.464724987745285
vt 0.3153609931468964 0.5282890200614929
vt 0.3195450007915497 0.4290220141410828
vt 0.7861239910125732 0.08565399795770645
vt 0.8712739944458008 0.1353289932012558
vt 0.8712739944458008 0.0366940014064312
vt 0.7786129713058472 0.5552369952201843
vt 0.7259039878845215 0.5158590078353882
vt 0.6879730224609375 0.5889340043067932
vt 0.7786129713058472 0.4566009938716888
vt 0.7786129713058472 0.5551999807357788
vt 0.8613420128822327 0.5037019848823547
vt 0.7740539908409119 0.2977449893951416
vt 0.7740539908409119 0.2142920047044754
vt 0.6920639872550964 0.243370994925499
vt 0.2082930058240891 0.9415640234947205
vt 0.2884230017662048 0.9070410132408142
vt 0.2037139981985092 0.856859028339386
vt 0.8650630116462708 0.7467970252037048
vt 0.8609830141067505 0.6800339818000794
vt 0.7786129713058472 0.7241169810295105
vt 0.6920639872550964 0.243370994925499
vt 0.6332169771194458 0.286300003528595
vt 0.6870120167732239 0.3422479927539825
vt 0.2884230017662048 0.9070410132408142
vt 0.2884230017662048 0.8082079887390137
vt 0.2037139981985092 0.856859028339386
vt 0.8609830141067505 0.6800339818000794
vt 0.7786129713058472 0.6270139813423157
vt 0.7786129713058472 0.7241169810295105
vt 0.6879730224609375 0.5889340043067932
vt 0.7259039878845215 0.5158590078353882
vt 0.6319540143013001 0.5116239786148071
vt 0.7992470264434815 0
vt 0.7861239910125732 0.08565399795770645
vt 0.8712739944458008 0.0366940014064312
vt 0.6920639872550964 0.243370994925499
vt 0.6870120167732239 0.3422479927539825
vt 0.7740539908409119 0.2977449893951416
vt 0.7786129713058472 0.5551999807357788
vt 0.8644430041313171 0.5896810293197632
vt 0.8613420128822327 0.5037019848823547
vt 0.7259039878845215 0.5158590078353882
vt 0.6879730224609375 0.4301460087299347
vt 0.6319540143013001 0.5116239786148071
vt 0.7786129713058472 0.4571000039577484
vt 0.6879730224609375 0.4301460087299347
vt 0.7259039878845215 0.5158590078353882
vt 0.8609830141067505 0.6800339818000794
vt 0.8650630116462708 0.5896810293197632
vt 0.7786129713058472 0.6270139813423157
vt 0.2037139981985092 0.856859028339386
vt 0.2884230017662048 0.8082079887390137
vt 0.2082930058240891 0.7816489934921265
vt 0.7992470264434815 0.1595949977636337
vt 0.8712739944458008 0.1353289932012558
vt 0.7861239910125732 0.08565399795770645
vt 0.9960860013961792 0.5291900038719177
vt 0.9502589702606201 0.5113919973373413
vt 0.9557830095291138 0.5570350289344788
vt 0.6319540143013001 0.9270690083503723
vt 0.6697880029678345 0.9242500066757202
vt 0.6610029935836792 0.885998010635376
vt 0.9475229978561401 0.1125909984111786
vt 0.9897069931030273 0.135451003909111
vt 0.9910129904747009 0.1009780019521713
vt 0.9475229978561401 0.1125909984111786
vt 0.9475229978561401 0.1621309965848923
vt 0.9897069931030273 0.135451003909111
vt 0.7850160002708435 0.8862659931182861
vt 0.7876930236816406 0.9210429787635803
vt 0.829364001750946 0.8984270095825195
vt 0.9475229978561401 0.1621309965848923
vt 0.9910129904747009 0.1811359971761704
vt 0.9897069931030273 0.135451003909111
vt 0.7876930236816406 0.9210429787635803
vt 0.829364001750946 0.9480400085449219
vt 0.829364001750946 0.8984270095825195
vt 0.6610029935836792 0.885998010635376
vt 0.6697880029678345 0.9242500066757202
vt 0.7080050110816956 0.9008769989013672
vt 0.9960860013961792 0.5787060260772705
vt 0.9960860013961792 0.5291900038719177
vt 0.9557830095291138 0.5570350289344788
vt 0.6319540143013001 0.9270690083503723
vt 0.6610029935836792 0.9673320055007935
vt 0.6697880029678345 0.9242500066757202
vt 0.7876930236816406 0.9210429787635803
vt 0.7850160002708435 0.9665420055389404
vt 0.829364001750946 0.9480400085449219
vt 0.6610029935836792 0.9673320055007935
vt 0.7080050110816956 0.9511449933052063
vt 0.6697880029678345 0.9242500066757202
vt 0.6697880029678345 0.9242500066757202
vt 0.7080050110816956 0.9511449933052063
vt 0.7080050110816956 0.9008769989013672
vt 0.829364001750946 0.9029210209846497
vt 0.829364001750946 0.9532769918441773
vt 0.8711190223693848 0.9288229942321777
vt 0.8711190223693848 0.9288229942321777
vt 0.829364001750946 0.9532769918441773
vt 0.8735859990119934 0.967743992805481
vt 0.4946309924125671 0.9719780087471008
vt 0.4424690008163452 0.938435971736908
vt 0.4407800137996674 1
vt 0.9926580190658569 0.6113119721412659
vt 0.9430440068244934 0.5896810293197632
vt 0.9392060041427612 0.6427670121192932
vt 0.9926580190658569 0.6735510230064392
vt 0.9926580190658569 0.6113119721412659
vt 0.9392060041427612 0.6427670121192932
vt 0.08158300071954727 0.8864949941635132
vt 0.09092999994754791 0.8388469815254211
vt 0.03473199903964996 0.8646559715270996
vt 0.8972219824790955 0.5309860110282898
vt 0.9260470271110535 0.4793460071086884
vt 0.8644430041313171 0.4796969890594482
vt 0.09092999994754791 0.8388469815254211
vt 0.04050900042057037 0.8026170134544373
vt 0.03473199903964996 0.8646559715270996
vt 0.9260470271110535 0.4793460071086884
vt 0.8972219824790955 0.4301460087299347
vt 0.8644430041313171 0.4796969890594482
vt 0.1111470013856888 0.9870719909667969
vt 0.106893002986908 0.9334930181503296
vt 0.0557439997792244 0.9660429954528809
vt 0.09092999994754791 0.8388469815254211
vt 0.09092999994754791 0.7861130237579346
vt 0.04050900042057037 0.8026170134544373
vt 0.03473199903964996 0.8646559715270996
vt 0.04050900042057037 0.8026170134544373
vt 0 0.8278729915618897
vt 0.9260470271110535 0.4793460071086884
vt 0.9502589702606201 0.4508109986782074
vt 0.8972219824790955 0.4301460087299347
vt 0.1111470013856888 0.8864949941635132
vt 0.0557439997792244 0.9038820266723633
vt 0.106893002986908 0.9334930181503296
vt 0.106893002986908 0.9334930181503296
vt 0.0557439997792244 0.9038820266723633
vt 0.0557439997792244 0.9660429954528809
vt 0.8928750157356262 0.3288240134716034
vt 0.859699010848999 0.3654850125312805
vt 0.894303023815155 0.3907960057258606
vt 0.4946309924125671 0.9161829948425293
vt 0.4424690008163452 0.938435971736908
vt 0.4946309924125671 0.9719780087471008
vt 0.3967309892177582 0.5446619987487793
vt 0.5116440057754517 0.6116999983787537
vt 0.5116440057754517 0.4785870015621185
vt 0.4016369879245758 0.1688160002231598
vt 0.330502986907959 0.1156750023365021
vt 0.2793140113353729 0.2142920047044754
vt 0.1900659948587418 0.3285180032253265
vt 0.1900659948587418 0.2158930003643036
vt 0.07941699773073196 0.2551369965076447
vt 0.5238140225410461 0.6459590196609497
vt 0.6319540143013001 0.5993679761886597
vt 0.5176339745521545 0.5316439867019653
vt 0.5183050036430359 0.2120350003242493
vt 0.5127999782562256 0.1219350025057793
vt 0.4016369879245758 0.181428000330925
vt 0.6319540143013001 0.5993679761886597
vt 0.6319540143013001 0.4659880101680756
vt 0.5176339745521545 0.5316439867019653
vt 0.5127999782562256 0.1219350025057793
vt 0.4016369879245758 0.05038300156593323
vt 0.4016369879245758 0.181428000330925
vt 0.2793140113353729 0.2142920047044754
vt 0.330502986907959 0.1156750023365021
vt 0.2037139981985092 0.1099589988589287
vt 0.4144409894943237 0.4290669858455658
vt 0.3967309892177582 0.5446619987487793
vt 0.5116440057754517 0.4785870015621185
vt 0.2037139981985092 0.5977879762649536
vt 0.3195450007915497 0.6443219780921936
vt 0.3153609931468964 0.5282890200614929
vt 0.1948489993810654 0.8419989943504334
vt 0.125889003276825 0.8883640170097351
vt 0.203342005610466 0.9181569814682007
vt 0.9519069790840149 0.7855439782142639
vt 0.8792679905891419 0.7480469942092896
vt 0.8796579837799072 0.8307589888572693
vt 0.330502986907959 0.1156750023365021
vt 0.2793140113353729 0
vt 0.2037139981985092 0.1099589988589287
vt 0.6888800263404846 0.8221660256385803
vt 0.7576079964637756 0.8620229959487915
vt 0.7576079964637756 0.7767630219459534
vt 0.9519069790840149 0.8656929731369019
vt 0.9519069790840149 0.7855439782142639
vt 0.8796579837799072 0.8307589888572693
vt 0.4016369879245758 0.03637500107288361
vt 0.2793140113353729 0
vt 0.330502986907959 0.1156750023365021
vt 0.8040779829025269 0.7752180099487305
vt 0.8792679905891419 0.8136450052261353
vt 0.8723440170288086 0.7480469942092896
vt 0.8040779829025269 0.7752180099487305
vt 0.808355987071991 0.8606430292129517
vt 0.8792679905891419 0.8136450052261353
vt 0.6799489855766296 0.885998010635376
vt 0.7576079964637756 0.8620229959487915
vt 0.6888800263404846 0.8221660256385803
vt 0.5127999782562256 0.1219350025057793
vt 0.5183050036430359 0
vt 0.4016369879245758 0.05038300156593323
vt 0.3920249938964844 0.4572390019893646
vt 0.3197109997272492 0.5007370114326477
vt 0.3920249938964844 0.5428599715232849
vt 0.808355987071991 0.8606430292129517
vt 0.8792679905891419 0.8862659931182861
vt 0.8792679905891419 0.8136450052261353
vt 0.1258450001478195 0.7861130237579346
vt 0.1258450001478195 0.7161309719085693
vt 0.05725999921560288 0.7667700052261353
vt 0.3920249938964844 0.4572390019893646
vt 0.3195460140705109 0.4290220141410828
vt 0.3197109997272492 0.5007370114326477
vt 0.5176339745521545 0.5316439867019653
vt 0.6319540143013001 0.4659880101680756
vt 0.5238140225410461 0.4301460087299347
vt 0.3920249938964844 0.5428599715232849
vt 0.3197109997272492 0.5007370114326477
vt 0.3195450007915497 0.5675579905509949
vt 0.203342005610466 0.7811059951782227
vt 0.125889003276825 0.8036620020866394
vt 0.1948489993810654 0.8419989943504334
vt 0.1109730005264282 0.6482250094413757
vt 0.04806799814105034 0.6815500259399414
vt 0.1258450001478195 0.7161309719085693
vt 0.1258450001478195 0.7161309719085693
vt 0.04806799814105034 0.6815500259399414
vt 0.05725999921560288 0.7667700052261353
vt 0.05725999921560288 0.7667700052261353
vt 0.04806799814105034 0.6815500259399414
vt 0 0.7301579713821411
vt 0.125889003276825 0.8036620020866394
vt 0.125889003276825 0.8883640170097351
vt 0.1948489993810654 0.8419989943504334
vt 0.4144400060176849 0.6444479823112488
vt 0.5116440057754517 0.6116999983787537
vt 0.3967309892177582 0.5446619987487793
vt 0.6799489855766296 0.885998010635376
vt 0.6888800263404846 0.8221660256385803
vt 0.6319540143013001 0.8155570030212402
vn -0.09920338541269302 -0.4259567558765411 -0.8992883563041687
vn -0.09920338541269302 -0.4259567558765411 -0.8992883563041687
vn -0.09920338541269302 -0.4259567558765411 -0.8992883563041687
vn -0.2009736299514771 0.4351567924022675 -0.8776378035545349
vn -0.2009736299514771 0.4351567924022675 -0.8776378035545349
vn -0.2009736299514771 0.4351567924022675 -0.8776378035545349
vn 0.19753398001194 -0.1760469079017639 -0.9643587470054627
vn 0.19753398001194 -0.1760469079017639 -0.9643587470054627
vn 0.19753398001194 -0.1760469079017639 -0.9643587470054627
vn -0.3934669494628906 -0.06794244050979614 -0.9168247580528259
vn -0.3934669494628906 -0.06794244050979614 -0.9168247580528259
vn -0.3934669494628906 -0.06794244050979614 -0.9168247580528259
vn 0.1444173157215118 0.3297102153301239 -0.9329709410667419
vn 0.1444173157215118 0.3297102153301239 -0.9329709410667419
vn 0.1444173157215118 0.3297102153301239 -0.9329709410667419
vn -0.1444179117679596 -0.3297097682952881 0.9329710006713867
vn -0.1444179117679596 -0.3297097682952881 0.9329710006713867
vn -0.1444179117679596 -0.3297097682952881 0.9329710006713867
vn 0.9645000100135803 0.2394122928380966 0.1114518120884895
vn 0.9645000100135803 0.2394122928380966 0.1114518120884895
vn 0.9645000100135803 0.2394122928380966 0.1114518120884895
vn 0.4639915525913239 0.7657372355461121 -0.4453744292259216
vn 0.4639915525913239 0.7657372355461121 -0.4453744292259216
vn 0.4639915525913239 0.7657372355461121 -0.4453744292259216
vn 0.1105326414108276 0.9501894116401672 0.2914147973060608
vn 0.1105326414108276 0.9501894116401672 0.2914147973060608
vn 0.1105326414108276 0.9501894116401672 0.2914147973060608
vn -0.3324507474899292 0.9302021861076355 -0.1555647253990173
vn -0.3324507474899292 0.9302021861076355 -0.1555647253990173
vn -0.3324507474899292 0.9302021861076355 -0.1555647253990173
vn 0.09920375794172287 0.425956666469574 0.8992883563041687
vn 0.09920375794172287 0.425956666469574 0.8992883563041687
vn 0.09920375794172287 0.425956666469574 0.8992883563041687
vn -0.6406033039093018 0.4975272715091705 0.5848880410194397
vn -0.6406033039093018 0.4975272715091705 0.5848880410194397
vn -0.6406033039093018 0.4975272715091705 0.5848880410194397
vn 0.6406005620956421 -0.4975265264511108 -0.584891676902771
vn 0.6406005620956421 -0.4975265264511108 -0.584891676902771
vn 0.6406005620956421 -0.4975265264511108 -0.584891676902771
vn -0.197534903883934 0.1760465353727341 0.9643586277961731
vn -0.197534903883934 0.1760465353727341 0.9643586277961731
vn -0.197534903883934 0.1760465353727341 0.9643586277961731
vn 0.3934654593467712 0.06794299185276032 0.9168253540992737
vn 0.3934654593467712 0.06794299185276032 0.9168253540992737
vn 0.3934654593467712 0.06794299185276032 0.9168253540992737
vn -0.9645000100135803 -0.2394098937511444 -0.1114569082856178
vn -0.9645000100135803 -0.2394098937511444 -0.1114569082856178
vn -0.9645000100135803 -0.2394098937511444 -0.1114569082856178
vn 0.2009730041027069 -0.4351558089256287 0.8776384592056274
vn 0.2009730041027069 -0.4351558089256287 0.8776384592056274
vn 0.2009730041027069 -0.4351558089256287 0.8776384592056274
vn 0.3324494957923889 -0.9302030205726624 0.1555623859167099
vn 0.3324494957923889 -0.9302030205726624 0.1555623859167099
vn 0.3324494957923889 -0.9302030205726624 0.1555623859167099
vn -0.1105325669050217 -0.9501888751983643 -0.2914167046546936
vn -0.1105325669050217 -0.9501888751983643 -0.2914167046546936
vn -0.1105325669050217 -0.9501888751983643 -0.2914167046546936
vn -0.4639932215213776 -0.7657378315925598 0.4453716278076172
vn -0.4639932215213776 -0.7657378315925598 0.4453716278076172
vn -0.4639932215213776 -0.7657378315925598 0.4453716278076172
vn -0.5438553690910339 -0.5106707811355591 0.6659104228019714
vn -0.5438553690910339 -0.5106707811355591 0.6659104228019714
vn -0.5438553690910339 -0.5106707811355591 0.6659104228019714
vn -0.1257437020540237 -0.244533970952034 0.9614529013633728
vn -0.1257437020540237 -0.244533970952034 0.9614529013633728
vn -0.1257437020540237 -0.244533970952034 0.9614529013633728
vn 0.03174702078104019 -0.6689943671226502 0.7425891160964966
vn 0.03174702078104019 -0.6689943671226502 0.7425891160964966
vn 0.03174702078104019 -0.6689943671226502 0.7425891160964966
vn -0.7901560068130493 -0.4139364659786224 0.4520067274570465
vn -0.7901560068130493 -0.4139364659786224 0.4520067274570465
vn -0.7901560068130493 -0.4139364659786224 0.4520067274570465
vn -0.0287568885833025 -0.9877282977104187 -0.1535117775201798
vn -0.0287568885833025 -0.9877282977104187 -0.1535117775201798
vn -0.0287568885833025 -0.9877282977104187 -0.1535117775201798
vn -0.2422957420349121 -0.2994743585586548 0.9228260517120361
vn -0.2422957420349121 -0.2994743585586548 0.9228260517120361
vn -0.2422957420349121 -0.2994743585586548 0.9228260517120361
vn -0.4489350914955139 -0.7246515154838562 -0.5228168368339539
vn -0.4489350914955139 -0.7246515154838562 -0.5228168368339539
vn -0.4489350914955139 -0.7246515154838562 -0.5228168368339539
vn -0.3646620512008667 -0.9307201504707336 -0.02795668505132198
vn -0.3646620512008667 -0.9307201504707336 -0.02795668505132198
vn -0.3646620512008667 -0.9307201504707336 -0.02795668505132198
vn -0.1154255494475365 -0.1448525637388229 -0.9826976656913757
vn -0.1154255494475365 -0.1448525637388229 -0.9826976656913757
vn -0.1154255494475365 -0.1448525637388229 -0.9826976656913757
vn 0.1121753603219986 -0.9544228911399841 -0.2765749096870422
vn 0.1121753603219986 -0.9544228911399841 -0.2765749096870422
vn 0.1121753603219986 -0.9544228911399841 -0.2765749096870422
vn -0.5169389247894287 -0.3964266777038574 -0.7586962580680847
vn -0.5169389247894287 -0.3964266777038574 -0.7586962580680847
vn -0.5169389247894287 -0.3964266777038574 -0.7586962580680847
vn 0.164385050535202 -0.4337520003318787 -0.8859100937843323
vn 0.164385050535202 -0.4337520003318787 -0.8859100937843323
vn 0.164385050535202 -0.4337520003318787 -0.8859100937843323
vn 0.1725685298442841 -0.5262871384620667 0.8326115608215332
vn 0.1725685298442841 -0.5262871384620667 0.8326115608215332
vn 0.1725685298442841 -0.5262871384620667 0.8326115608215332
vn -0.5438556671142578 -0.5106704235076904 0.6659104228019714
vn -0.5438556671142578 -0.5106704235076904 0.6659104228019714
vn -0.5438556671142578 -0.5106704235076904 0.6659104228019714
vn 0.1330898851156235 -0.9880627989768982 0.07758224755525589
vn 0.1330898851156235 -0.9880627989768982 0.07758224755525589
vn 0.1330898851156235 -0.9880627989768982 0.07758224755525589
vn -0.3376408815383911 -0.9212720394134522 -0.1930193305015564
vn -0.3376408815383911 -0.9212720394134522 -0.1930193305015564
vn -0.3376408815383911 -0.9212720394134522 -0.1930193305015564
vn -0.2674094438552856 -0.1883929818868637 -0.9449869394302368
vn -0.2674094438552856 -0.1883929818868637 -0.9449869394302368
vn -0.2674094438552856 -0.1883929818868637 -0.9449869394302368
vn -0.7455930709838867 -0.5269491076469421 -0.407940685749054
vn -0.7455930709838867 -0.5269491076469421 -0.407940685749054
vn -0.7455930709838867 -0.5269491076469421 -0.407940685749054
vn -0.1257435530424118 -0.2445336431264877 0.9614530205726624
vn -0.1257435530424118 -0.2445336431264877 0.9614530205726624
vn -0.1257435530424118 -0.2445336431264877 0.9614530205726624
vn 0.3376405835151672 0.9212721586227417 0.193019449710846
vn 0.3376405835151672 0.9212721586227417 0.193019449710846
vn 0.3376405835151672 0.9212721586227417 0.193019449710846
vn 0.07471087574958801 -0.2401235997676849 -0.9678630828857422
vn 0.07471087574958801 -0.2401235997676849 -0.9678630828857422
vn 0.07471087574958801 -0.2401235997676849 -0.9678630828857422
vn 0.1725683510303497 -0.5262874960899353 0.8326113224029541
vn 0.1725683510303497 -0.5262874960899353 0.8326113224029541
vn 0.1725683510303497 -0.5262874960899353 0.8326113224029541
vn -0.2644177079200745 -0.3835860192775726 -0.884841799736023
vn -0.2644177079200745 -0.3835860192775726 -0.884841799736023
vn -0.2644177079200745 -0.3835860192775726 -0.884841799736023
vn -0.5153064727783203 0.1405898779630661 -0.845395565032959
vn -0.5153064727783203 0.1405898779630661 -0.845395565032959
vn -0.5153064727783203 0.1405898779630661 -0.845395565032959
vn -0.9343389868736267 0.2116747200489044 0.2867131233215332
vn -0.9343389868736267 0.2116747200489044 0.2867131233215332
vn -0.9343389868736267 0.2116747200489044 0.2867131233215332
vn 0.1330895721912384 -0.9880627989768982 0.07758248597383499
vn 0.1330895721912384 -0.9880627989768982 0.07758248597383499
vn 0.1330895721912384 -0.9880627989768982 0.07758248597383499
vn -0.1725690215826035 0.5262870192527771 -0.8326115012168884
vn -0.1725690215826035 0.5262870192527771 -0.8326115012168884
vn -0.1725690215826035 0.5262870192527771 -0.8326115012168884
vn -0.3828650712966919 0.6386469006538391 0.6674911975860596
vn -0.3828650712966919 0.6386469006538391 0.6674911975860596
vn -0.3828650712966919 0.6386469006538391 0.6674911975860596
vn 0.3828646242618561 -0.6386472582817078 -0.6674911379814148
vn 0.3828646242618561 -0.6386472582817078 -0.6674911379814148
vn 0.3828646242618561 -0.6386472582817078 -0.6674911379814148
vn -0.1330905705690384 0.9880626797676086 -0.07758231461048126
vn -0.1330905705690384 0.9880626797676086 -0.07758231461048126
vn -0.1330905705690384 0.9880626797676086 -0.07758231461048126
vn -0.3376409113407135 -0.9212720990180969 -0.1930189877748489
vn -0.3376409113407135 -0.9212720990180969 -0.1930189877748489
vn -0.3376409113407135 -0.9212720990180969 -0.1930189877748489
vn 0.5153053998947144 -0.1405905038118362 0.8453961610794067
vn 0.5153053998947144 -0.1405905038118362 0.8453961610794067
vn 0.5153053998947144 -0.1405905038118362 0.8453961610794067
vn 0.9343385100364685 -0.2116757780313492 -0.2867139279842377
vn 0.9343385100364685 -0.2116757780313492 -0.2867139279842377
vn 0.9343385100364685 -0.2116757780313492 -0.2867139279842377
vn 0.5438553690910339 0.5106699466705322 -0.665911078453064
vn 0.5438553690910339 0.5106699466705322 -0.665911078453064
vn 0.5438553690910339 0.5106699466705322 -0.665911078453064
vn -0.07471112161874771 0.2401237040758133 0.9678630232810974
vn -0.07471112161874771 0.2401237040758133 0.9678630232810974
vn -0.07471112161874771 0.2401237040758133 0.9678630232810974
vn 0.1257432550191879 0.2445333153009415 -0.9614531397819519
vn 0.1257432550191879 0.2445333153009415 -0.9614531397819519
vn 0.1257432550191879 0.2445333153009415 -0.9614531397819519
vn 0.2644166946411133 0.3835851550102234 0.8848425149917603
vn 0.2644166946411133 0.3835851550102234 0.8848425149917603
vn 0.2644166946411133 0.3835851550102234 0.8848425149917603
vn 0.4489357173442841 0.7246519327163696 0.5228157043457031
vn 0.4489357173442841 0.7246519327163696 0.5228157043457031
vn 0.4489357173442841 0.7246519327163696 0.5228157043457031
vn 0.09656264632940292 -0.1683283597230911 -0.980989933013916
vn 0.09656264632940292 -0.1683283597230911 -0.980989933013916
vn 0.09656264632940292 -0.1683283597230911 -0.980989933013916
vn -0.2351936548948288 -0.1683016866445541 -0.9572661519050598
vn -0.2351936548948288 -0.1683016866445541 -0.9572661519050598
vn -0.2351936548948288 -0.1683016866445541 -0.9572661519050598
vn -0.3813692629337311 0.3762871325016022 -0.8443728089332581
vn -0.3813692629337311 0.3762871325016022 -0.8443728089332581
vn -0.3813692629337311 0.3762871325016022 -0.8443728089332581
vn -0.8498567342758179 0.5200149416923523 0.0856037363409996
vn -0.8498567342758179 0.5200149416923523 0.0856037363409996
vn -0.8498567342758179 0.5200149416923523 0.0856037363409996
vn -0.03174703195691109 0.6689938902854919 -0.7425895929336548
vn -0.03174703195691109 0.6689938902854919 -0.7425895929336548
vn -0.03174703195691109 0.6689938902854919 -0.7425895929336548
vn -0.296789288520813 0.6633543372154236 0.686933159828186
vn -0.296789288520813 0.6633543372154236 0.686933159828186
vn -0.296789288520813 0.6633543372154236 0.686933159828186
vn 0.2967883348464966 -0.6633555889129639 -0.6869323253631592
vn 0.2967883348464966 -0.6633555889129639 -0.6869323253631592
vn 0.2967883348464966 -0.6633555889129639 -0.6869323253631592
vn 0.02875669486820698 0.9877285957336426 0.1535098999738693
vn 0.02875669486820698 0.9877285957336426 0.1535098999738693
vn 0.02875669486820698 0.9877285957336426 0.1535098999738693
vn 0.2422954440116882 0.2994739711284638 -0.9228262305259705
vn 0.2422954440116882 0.2994739711284638 -0.9228262305259705
vn 0.2422954440116882 0.2994739711284638 -0.9228262305259705
vn -0.09656333923339844 0.168328270316124 0.9809898734092712
vn -0.09656333923339844 0.168328270316124 0.9809898734092712
vn -0.09656333923339844 0.168328270316124 0.9809898734092712
vn 0.7901554107666016 0.4139359593391419 -0.4520082473754883
vn 0.7901554107666016 0.4139359593391419 -0.4520082473754883
vn 0.7901554107666016 0.4139359593391419 -0.4520082473754883
vn 0.8498557806015015 -0.5200169086456299 -0.08560103923082352
vn 0.8498557806015015 -0.5200169086456299 -0.08560103923082352
vn 0.8498557806015015 -0.5200169086456299 -0.08560103923082352
vn 0.3813705146312714 -0.3762879073619843 0.8443719148635864
vn 0.3813705146312714 -0.3762879073619843 0.8443719148635864
vn 0.3813705146312714 -0.3762879073619843 0.8443719148635864
vn 0.2351945638656616 0.168301522731781 0.9572659730911255
vn 0.2351945638656616 0.168301522731781 0.9572659730911255
vn 0.2351945638656616 0.168301522731781 0.9572659730911255
vn -0.1643853932619095 0.4337520003318787 0.8859100937843323
vn -0.1643853932619095 0.4337520003318787 0.8859100937843323
vn -0.1643853932619095 0.4337520003318787 0.8859100937843323
vn 0.9162231087684631 -0.2792409062385559 0.2873319983482361
vn 0.9162231087684631 -0.2792409062385559 0.2873319983482361
vn 0.9162231087684631 -0.2792409062385559 0.2873319983482361
vn 0.5266727209091187 -0.08964309096336365 -0.8453283309936523
vn 0.5266727209091187 -0.08964309096336365 -0.8453283309936523
vn 0.5266727209091187 -0.08964309096336365 -0.8453283309936523
vn 0.3001657724380493 0.4744561314582825 -0.8275215029716492
vn 0.3001657724380493 0.4744561314582825 -0.8275215029716492
vn 0.3001657724380493 0.4744561314582825 -0.8275215029716492
vn -0.06027530878782272 0.3388932347297669 -0.9388920664787293
vn -0.06027530878782272 0.3388932347297669 -0.9388920664787293
vn -0.06027530878782272 0.3388932347297669 -0.9388920664787293
vn 0.3646616935729981 0.9307202696800232 0.02795751579105854
vn 0.3646616935729981 0.9307202696800232 0.02795751579105854
vn 0.3646616935729981 0.9307202696800232 0.02795751579105854
vn -0.3750206828117371 0.7364371418952942 -0.5630451440811157
vn -0.3750206828117371 0.7364371418952942 -0.5630451440811157
vn -0.3750206828117371 0.7364371418952942 -0.5630451440811157
vn 0.3750206232070923 -0.7364379167556763 0.5630441308021545
vn 0.3750206232070923 -0.7364379167556763 0.5630441308021545
vn 0.3750206232070923 -0.7364379167556763 0.5630441308021545
vn -0.1121749728918076 0.9544230699539185 0.2765742540359497
vn -0.1121749728918076 0.9544230699539185 0.2765742540359497
vn -0.1121749728918076 0.9544230699539185 0.2765742540359497
vn 0.5169391632080078 0.3964289426803589 0.7586949467658997
vn 0.5169391632080078 0.3964289426803589 0.7586949467658997
vn 0.5169391632080078 0.3964289426803589 0.7586949467658997
vn -0.916221559047699 0.2792428135871887 -0.287335216999054
vn -0.916221559047699 0.2792428135871887 -0.287335216999054
vn -0.916221559047699 0.2792428135871887 -0.287335216999054
vn 0.1154251098632813 0.1448527723550797 0.9826976656913757
vn 0.1154251098632813 0.1448527723550797 0.9826976656913757
vn 0.1154251098632813 0.1448527723550797 0.9826976656913757
vn 0.06027492880821228 -0.3388932347297669 0.9388920664787293
vn 0.06027492880821228 -0.3388932347297669 0.9388920664787293
vn 0.06027492880821228 -0.3388932347297669 0.9388920664787293
vn -0.3001656532287598 -0.4744558334350586 0.8275217413902283
vn -0.3001656532287598 -0.4744558334350586 0.8275217413902283
vn -0.3001656532287598 -0.4744558334350586 0.8275217413902283
vn -0.5266724228858948 0.08964424580335617 0.8453283905982971
vn -0.5266724228858948 0.08964424580335617 0.8453283905982971
vn -0.5266724228858948 0.08964424580335617 0.8453283905982971
vn 0.3376404345035553 0.9212725758552551 0.1930176764726639
vn 0.3376404345035553 0.9212725758552551 0.1930176764726639
vn 0.3376404345035553 0.9212725758552551 0.1930176764726639
vn 0.07471084594726563 -0.2401239275932312 -0.9678630232810974
vn 0.07471084594726563 -0.2401239275932312 -0.9678630232810974
vn 0.07471084594726563 -0.2401239275932312 -0.9678630232810974
vn -0.2644174993038178 -0.3835856914520264 -0.8848420381546021
vn -0.2644174993038178 -0.3835856914520264 -0.8848420381546021
vn -0.2644174993038178 -0.3835856914520264 -0.8848420381546021
vn -0.5153061747550964 0.1405897438526154 -0.8453958034515381
vn -0.5153061747550964 0.1405897438526154 -0.8453958034515381
vn -0.5153061747550964 0.1405897438526154 -0.8453958034515381
vn -0.934339165687561 0.2116745710372925 0.2867127060890198
vn -0.934339165687561 0.2116745710372925 0.2867127060890198
vn -0.934339165687561 0.2116745710372925 0.2867127060890198
vn -0.1725686192512512 0.5262872576713562 -0.8326114416122437
vn -0.1725686192512512 0.5262872576713562 -0.8326114416122437
vn -0.1725686192512512 0.5262872576713562 -0.8326114416122437
vn -0.3828648924827576 0.6386472582817078 0.6674909591674805
vn -0.3828648924827576 0.6386472582817078 0.6674909591674805
vn -0.3828648924827576 0.6386472582817078 0.6674909591674805
vn 0.3828648030757904 -0.6386473774909973 -0.6674908995628357
vn 0.3828648030757904 -0.6386473774909973 -0.6674908995628357
vn 0.3828648030757904 -0.6386473774909973 -0.6674908995628357
vn -0.1330899894237518 0.9880626797676086 -0.0775834321975708
vn -0.1330899894237518 0.9880626797676086 -0.0775834321975708
vn -0.1330899894237518 0.9880626797676086 -0.0775834321975708
vn 0.5153053402900696 -0.1405905932188034 0.8453961610794067
vn 0.5153053402900696 -0.1405905932188034 0.8453961610794067
vn 0.5153053402900696 -0.1405905932188034 0.8453961610794067
vn -0.04130144789814949 0.4340009987354279 0.8999651670455933
vn -0.04130144789814949 0.4340009987354279 0.8999651670455933
vn -0.04130144789814949 0.4340009987354279 0.8999651670455933
vn 0.8891316652297974 -0.2625576853752136 -0.374844491481781
vn 0.8891316652297974 -0.2625576853752136 -0.374844491481781
vn 0.8891316652297974 -0.2625576853752136 -0.374844491481781
vn 0.934338390827179 -0.2116757035255432 -0.2867143452167511
vn 0.934338390827179 -0.2116757035255432 -0.2867143452167511
vn 0.934338390827179 -0.2116757035255432 -0.2867143452167511
vn -0.3308860063552856 -0.9016010165214539 0.2786217629909515
vn -0.3308860063552856 -0.9016010165214539 0.2786217629909515
vn -0.3308860063552856 -0.9016010165214539 0.2786217629909515
vn 0.3115009665489197 -0.0855330228805542 -0.9463885426521301
vn 0.3115009665489197 -0.0855330228805542 -0.9463885426521301
vn 0.3115009665489197 -0.0855330228805542 -0.9463885426521301
vn 0.5438550114631653 0.5106699466705322 -0.6659113764762878
vn 0.5438550114631653 0.5106699466705322 -0.6659113764762878
vn 0.5438550114631653 0.5106699466705322 -0.6659113764762878
vn 0.1508403718471527 0.4003637433052063 -0.9038562178611755
vn 0.1508403718471527 0.4003637433052063 -0.9038562178611755
vn 0.1508403718471527 0.4003637433052063 -0.9038562178611755
vn -0.1960466653108597 0.3373652696609497 -0.920733630657196
vn -0.1960466653108597 0.3373652696609497 -0.920733630657196
vn -0.1960466653108597 0.3373652696609497 -0.920733630657196
vn 0.07790371775627136 -0.9526176452636719 -0.2940248847007752
vn 0.07790371775627136 -0.9526176452636719 -0.2940248847007752
vn 0.07790371775627136 -0.9526176452636719 -0.2940248847007752
vn -0.07471096515655518 0.2401235997676849 0.9678630828857422
vn -0.07471096515655518 0.2401235997676849 0.9678630828857422
vn -0.07471096515655518 0.2401235997676849 0.9678630828857422
vn 0.330885648727417 0.9016010165214539 -0.2786222100257874
vn 0.330885648727417 0.9016010165214539 -0.2786222100257874
vn 0.330885648727417 0.9016010165214539 -0.2786222100257874
vn -0.4886395931243897 0.8066019415855408 -0.332602858543396
vn -0.4886395931243897 0.8066019415855408 -0.332602858543396
vn -0.4886395931243897 0.8066019415855408 -0.332602858543396
vn 0.4886396527290344 -0.8066027164459229 0.3326008915901184
vn 0.4886396527290344 -0.8066027164459229 0.3326008915901184
vn 0.4886396527290344 -0.8066027164459229 0.3326008915901184
vn -0.07790368050336838 0.9526179432868958 0.2940239012241364
vn -0.07790368050336838 0.9526179432868958 0.2940239012241364
vn -0.07790368050336838 0.9526179432868958 0.2940239012241364
vn 0.1257434338331223 0.2445337772369385 -0.9614529609680176
vn 0.1257434338331223 0.2445337772369385 -0.9614529609680176
vn 0.1257434338331223 0.2445337772369385 -0.9614529609680176
vn 0.7455927729606628 0.5269483923912048 0.4079421758651733
vn 0.7455927729606628 0.5269483923912048 0.4079421758651733
vn 0.7455927729606628 0.5269483923912048 0.4079421758651733
vn -0.8891322612762451 0.2625558078289032 0.3748443424701691
vn -0.8891322612762451 0.2625558078289032 0.3748443424701691
vn -0.8891322612762451 0.2625558078289032 0.3748443424701691
vn 0.2674100399017334 0.1883931308984757 0.9449867010116577
vn 0.2674100399017334 0.1883931308984757 0.9449867010116577
vn 0.2674100399017334 0.1883931308984757 0.9449867010116577
vn 0.1960466355085373 -0.3373654782772064 0.9207335114479065
vn 0.1960466355085373 -0.3373654782772064 0.9207335114479065
vn 0.1960466355085373 -0.3373654782772064 0.9207335114479065
vn -0.1508405059576035 -0.400363564491272 0.9038562774658203
vn -0.1508405059576035 -0.400363564491272 0.9038562774658203
vn -0.1508405059576035 -0.400363564491272 0.9038562774658203
vn -0.3115011751651764 0.08553234487771988 0.9463885426521301
vn -0.3115011751651764 0.08553234487771988 0.9463885426521301
vn -0.3115011751651764 0.08553234487771988 0.9463885426521301
vn 0.2644168436527252 0.3835848569869995 0.884842574596405
vn 0.2644168436527252 0.3835848569869995 0.884842574596405
vn 0.2644168436527252 0.3835848569869995 0.884842574596405
vn 0.04130144789814949 -0.434000551700592 -0.8999654054641724
vn 0.04130144789814949 -0.434000551700592 -0.8999654054641724
vn 0.04130144789814949 -0.434000551700592 -0.8999654054641724
vn 0.5820044279098511 -0.4092520475387573 -0.7026973366737366
vn 0.5820044279098511 -0.4092520475387573 -0.7026973366737366
vn 0.5820044279098511 -0.4092520475387573 -0.7026973366737366
vn 0.1364935338497162 -0.2148808687925339 -0.9670552015304565
vn 0.1364935338497162 -0.2148808687925339 -0.9670552015304565
vn 0.1364935338497162 -0.2148808687925339 -0.9670552015304565
vn 0.01558676734566689 -0.6640431880950928 -0.7475317716598511
vn 0.01558676734566689 -0.6640431880950928 -0.7475317716598511
vn 0.01558676734566689 -0.6640431880950928 -0.7475317716598511
vn 0.8257510662078857 -0.2681620121002197 -0.4962099492549896
vn 0.8257510662078857 -0.2681620121002197 -0.4962099492549896
vn 0.8257510662078857 -0.2681620121002197 -0.4962099492549896
vn 0.1084922477602959 -0.9842105507850647 0.1398537755012512
vn 0.1084922477602959 -0.9842105507850647 0.1398537755012512
vn 0.1084922477602959 -0.9842105507850647 0.1398537755012512
vn 0.256548672914505 -0.2482185065746307 -0.9341147541999817
vn 0.256548672914505 -0.2482185065746307 -0.9341147541999817
vn 0.256548672914505 -0.2482185065746307 -0.9341147541999817
vn 0.5309652090072632 -0.6701162457466126 0.5186715722084045
vn 0.5309652090072632 -0.6701162457466126 0.5186715722084045
vn 0.5309652090072632 -0.6701162457466126 0.5186715722084045
vn 0.452962726354599 -0.8915292024612427 0.0006937188445590437
vn 0.452962726354599 -0.8915292024612427 0.0006937188445590437
vn 0.452962726354599 -0.8915292024612427 0.0006937188445590437
vn 0.1343060731887817 -0.1278940588235855 0.9826520085334778
vn 0.1343060731887817 -0.1278940588235855 0.9826520085334778
vn 0.1343060731887817 -0.1278940588235855 0.9826520085334778
vn -0.03380011022090912 -0.9633466601371765 0.2661217749118805
vn -0.03380011022090912 -0.9633466601371765 0.2661217749118805
vn -0.03380011022090912 -0.9633466601371765 0.2661217749118805
vn 0.5701931118965149 -0.3132819831371307 0.7594301700592041
vn 0.5701931118965149 -0.3132819831371307 0.7594301700592041
vn 0.5701931118965149 -0.3132819831371307 0.7594301700592041
vn -0.121315598487854 -0.4609016478061676 0.8791201114654541
vn -0.121315598487854 -0.4609016478061676 0.8791201114654541
vn -0.121315598487854 -0.4609016478061676 0.8791201114654541
vn -0.1350410431623459 -0.5462350249290466 -0.8266748189926148
vn -0.1350410431623459 -0.5462350249290466 -0.8266748189926148
vn -0.1350410431623459 -0.5462350249290466 -0.8266748189926148
vn 0.5820044279098511 -0.409252405166626 -0.7026971578598023
vn 0.5820044279098511 -0.409252405166626 -0.7026971578598023
vn 0.5820044279098511 -0.409252405166626 -0.7026971578598023
vn -0.05423501506447792 -0.9948931336402893 -0.08512479066848755
vn -0.05423501506447792 -0.9948931336402893 -0.08512479066848755
vn -0.05423501506447792 -0.9948931336402893 -0.08512479066848755
vn 0.4257508218288422 -0.8880250453948975 0.173630952835083
vn 0.4257508218288422 -0.8880250453948975 0.173630952835083
vn 0.4257508218288422 -0.8880250453948975 0.173630952835083
vn 0.2916918098926544 -0.144365519285202 0.9455550909042358
vn 0.2916918098926544 -0.144365519285202 0.9455550909042358
vn 0.2916918098926544 -0.144365519285202 0.9455550909042358
vn 0.8251719474792481 -0.4083981812000275 0.3902590572834015
vn 0.8251719474792481 -0.4083981812000275 0.3902590572834015
vn 0.8251719474792481 -0.4083981812000275 0.3902590572834015
vn 0.1364934593439102 -0.2148811966180801 -0.9670551419258118
vn 0.1364934593439102 -0.2148811966180801 -0.9670551419258118
vn 0.1364934593439102 -0.2148811966180801 -0.9670551419258118
vn -0.4257506132125855 0.888025164604187 -0.1736311167478561
vn -0.4257506132125855 0.888025164604187 -0.1736311167478561
vn -0.4257506132125855 0.888025164604187 -0.1736311167478561
vn -0.04784918203949928 -0.2558823525905609 0.9655230045318604
vn -0.04784918203949928 -0.2558823525905609 0.9655230045318604
vn -0.04784918203949928 -0.2558823525905609 0.9655230045318604
vn -0.1350413411855698 -0.5462349653244019 -0.8266748189926148
vn -0.1350413411855698 -0.5462349653244019 -0.8266748189926148
vn -0.1350413411855698 -0.5462349653244019 -0.8266748189926148
vn 0.3058999478816986 -0.3436325788497925 0.8878861665725708
vn 0.3058999478816986 -0.3436325788497925 0.8878861665725708
vn 0.3058999478816986 -0.3436325788497925 0.8878861665725708
vn 0.508440375328064 0.2309480905532837 0.8295488953590393
vn 0.508440375328064 0.2309480905532837 0.8295488953590393
vn 0.508440375328064 0.2309480905532837 0.8295488953590393
vn 0.876448392868042 0.3690049648284912 -0.3093114197254181
vn 0.876448392868042 0.3690049648284912 -0.3093114197254181
vn 0.876448392868042 0.3690049648284912 -0.3093114197254181
vn -0.05423510074615479 -0.9948931932449341 -0.08512416481971741
vn -0.05423510074615479 -0.9948931932449341 -0.08512416481971741
vn -0.05423510074615479 -0.9948931932449341 -0.08512416481971741
vn 0.1350416988134384 0.5462348461151123 0.8266748189926148
vn 0.1350416988134384 0.5462348461151123 0.8266748189926148
vn 0.1350416988134384 0.5462348461151123 0.8266748189926148
vn 0.3154492676258087 0.6870448589324951 -0.6545694470405579
vn 0.3154492676258087 0.6870448589324951 -0.6545694470405579
vn 0.3154492676258087 0.6870448589324951 -0.6545694470405579
vn -0.315449059009552 -0.6870455145835877 0.6545688509941101
vn -0.315449059009552 -0.6870455145835877 0.6545688509941101
vn -0.315449059009552 -0.6870455145835877 0.6545688509941101
vn 0.05423549562692642 0.9948931336402893 0.08512436598539352
vn 0.05423549562692642 0.9948931336402893 0.08512436598539352
vn 0.05423549562692642 0.9948931336402893 0.08512436598539352
vn 0.4257509112358093 -0.8880248069763184 0.1736319810152054
vn 0.4257509112358093 -0.8880248069763184 0.1736319810152054
vn 0.4257509112358093 -0.8880248069763184 0.1736319810152054
vn -0.5084397792816162 -0.2309485822916031 -0.8295491337776184
vn -0.5084397792816162 -0.2309485822916031 -0.8295491337776184
vn -0.5084397792816162 -0.2309485822916031 -0.8295491337776184
vn -0.8764481544494629 -0.3690060079097748 0.3093109130859375
vn -0.8764481544494629 -0.3690060079097748 0.3093109130859375
vn -0.8764481544494629 -0.3690060079097748 0.3093109130859375
vn -0.5820039510726929 0.4092523157596588 0.7026976346969605
vn -0.5820039510726929 0.4092523157596588 0.7026976346969605
vn -0.5820039510726929 0.4092523157596588 0.7026976346969605
vn 0.0478496365249157 0.2558824121952057 -0.9655229449272156
vn 0.0478496365249157 0.2558824121952057 -0.9655229449272156
vn 0.0478496365249157 0.2558824121952057 -0.9655229449272156
vn -0.1364930272102356 0.214880958199501 0.9670552611351013
vn -0.1364930272102356 0.214880958199501 0.9670552611351013
vn -0.1364930272102356 0.214880958199501 0.9670552611351013
vn -0.3058995604515076 0.343632310628891 -0.8878864049911499
vn -0.3058995604515076 0.343632310628891 -0.8878864049911499
vn -0.3058995604515076 0.343632310628891 -0.8878864049911499
vn -0.5309654474258423 0.6701163053512573 -0.5186712741851807
vn -0.5309654474258423 0.6701163053512573 -0.5186712741851807
vn -0.5309654474258423 0.6701163053512573 -0.5186712741851807
vn -0.07495389133691788 -0.1885485202074051 0.9791993498802185
vn -0.07495389133691788 -0.1885485202074051 0.9791993498802185
vn -0.07495389133691788 -0.1885485202074051 0.9791993498802185
vn 0.2571858167648315 -0.1298960149288178 0.9575920104980469
vn 0.2571858167648315 -0.1298960149288178 0.9575920104980469
vn 0.2571858167648315 -0.1298960149288178 0.9575920104980469
vn 0.3524896502494812 0.436249703168869 0.827911376953125
vn 0.3524896502494812 0.436249703168869 0.827911376953125
vn 0.3524896502494812 0.436249703168869 0.827911376953125
vn 0.7619904279708862 0.6387879252433777 -0.1063981279730797
vn 0.7619904279708862 0.6387879252433777 -0.1063981279730797
vn 0.7619904279708862 0.6387879252433777 -0.1063981279730797
vn -0.01558659505099058 0.6640418767929077 0.7475329041481018
vn -0.01558659505099058 0.6640418767929077 0.7475329041481018
vn -0.01558659505099058 0.6640418767929077 0.7475329041481018
vn 0.2320662289857864 0.7006849050521851 -0.6746746897697449
vn 0.2320662289857864 0.7006849050521851 -0.6746746897697449
vn 0.2320662289857864 0.7006849050521851 -0.6746746897697449
vn -0.232065960764885 -0.7006852626800537 0.674674391746521
vn -0.232065960764885 -0.7006852626800537 0.674674391746521
vn -0.232065960764885 -0.7006852626800537 0.674674391746521
vn -0.1084923297166824 0.9842105507850647 -0.1398536264896393
vn -0.1084923297166824 0.9842105507850647 -0.1398536264896393
vn -0.1084923297166824 0.9842105507850647 -0.1398536264896393
vn -0.2565481662750244 0.2482179403305054 0.9341150522232056
vn -0.2565481662750244 0.2482179403305054 0.9341150522232056
vn -0.2565481662750244 0.2482179403305054 0.9341150522232056
vn 0.07495374977588654 0.1885489523410797 -0.9791992902755737
vn 0.07495374977588654 0.1885489523410797 -0.9791992902755737
vn 0.07495374977588654 0.1885489523410797 -0.9791992902755737
vn -0.8257512450218201 0.2681625187397003 0.4962093532085419
vn -0.8257512450218201 0.2681625187397003 0.4962093532085419
vn -0.8257512450218201 0.2681625187397003 0.4962093532085419
vn -0.7619906067848206 -0.6387881636619568 0.10639538615942
vn -0.7619906067848206 -0.6387881636619568 0.10639538615942
vn -0.7619906067848206 -0.6387881636619568 0.10639538615942
vn -0.3524903953075409 -0.4362499713897705 -0.8279109001159668
vn -0.3524903953075409 -0.4362499713897705 -0.8279109001159668
vn -0.3524903953075409 -0.4362499713897705 -0.8279109001159668
vn -0.2571861743927002 0.129896342754364 -0.9575918912887573
vn -0.2571861743927002 0.129896342754364 -0.9575918912887573
vn -0.2571861743927002 0.129896342754364 -0.9575918912887573
vn 0.121315523982048 0.4609014689922333 -0.8791202306747437
vn 0.121315523982048 0.4609014689922333 -0.8791202306747437
vn 0.121315523982048 0.4609014689922333 -0.8791202306747437
vn -0.8668018579483032 -0.4323731064796448 -0.2484110593795776
vn -0.8668018579483032 -0.4323731064796448 -0.2484110593795776
vn -0.8668018579483032 -0.4323731064796448 -0.2484110593795776
vn -0.4987314641475678 -0.1852632015943527 0.8467257618904114
vn -0.4987314641475678 -0.1852632015943527 0.8467257618904114
vn -0.4987314641475678 -0.1852632015943527 0.8467257618904114
vn -0.330163300037384 0.4136500358581543 0.848460853099823
vn -0.330163300037384 0.4136500358581543 0.848460853099823
vn -0.330163300037384 0.4136500358581543 0.848460853099823
vn 0.04007531329989433 0.3424401581287384 0.9386845827102661
vn 0.04007531329989433 0.3424401581287384 0.9386845827102661
vn 0.04007531329989433 0.3424401581287384 0.9386845827102661
vn -0.4529627859592438 0.8915291428565979 -0.0006924898480065167
vn -0.4529627859592438 0.8915291428565979 -0.0006924898480065167
vn -0.4529627859592438 0.8915291428565979 -0.0006924898480065167
vn 0.3109311163425446 0.7785181403160095 0.5451892614364624
vn 0.3109311163425446 0.7785181403160095 0.5451892614364624
vn 0.3109311163425446 0.7785181403160095 0.5451892614364624
vn -0.3109313547611237 -0.7785189747810364 -0.5451879501342773
vn -0.3109313547611237 -0.7785189747810364 -0.5451879501342773
vn -0.3109313547611237 -0.7785189747810364 -0.5451879501342773
vn 0.03379985317587853 0.9633470177650452 -0.2661203742027283
vn 0.03379985317587853 0.9633470177650452 -0.2661203742027283
vn 0.03379985317587853 0.9633470177650452 -0.2661203742027283
vn -0.5701934099197388 0.3132824897766113 -0.7594297528266907
vn -0.5701934099197388 0.3132824897766113 -0.7594297528266907
vn -0.5701934099197388 0.3132824897766113 -0.7594297528266907
vn 0.8668016791343689 0.4323723018169403 0.2484131455421448
vn 0.8668016791343689 0.4323723018169403 0.2484131455421448
vn 0.8668016791343689 0.4323723018169403 0.2484131455421448
vn -0.1343061774969101 0.1278941780328751 -0.9826520085334778
vn -0.1343061774969101 0.1278941780328751 -0.9826520085334778
vn -0.1343061774969101 0.1278941780328751 -0.9826520085334778
vn -0.04007511958479881 -0.3424400091171265 -0.9386846423149109
vn -0.04007511958479881 -0.3424400091171265 -0.9386846423149109
vn -0.04007511958479881 -0.3424400091171265 -0.9386846423149109
vn 0.3301630020141602 -0.4136491417884827 -0.848461389541626
vn 0.3301630020141602 -0.4136491417884827 -0.848461389541626
vn 0.3301630020141602 -0.4136491417884827 -0.848461389541626
vn 0.4987311363220215 0.1852626949548721 -0.8467260599136353
vn 0.4987311363220215 0.1852626949548721 -0.8467260599136353
vn 0.4987311363220215 0.1852626949548721 -0.8467260599136353
vn -0.4257504642009735 0.8880252838134766 -0.1736307591199875
vn -0.4257504642009735 0.8880252838134766 -0.1736307591199875
vn -0.4257504642009735 0.8880252838134766 -0.1736307591199875
vn -0.04784931614995003 -0.2558823525905609 0.9655230045318604
vn -0.04784931614995003 -0.2558823525905609 0.9655230045318604
vn -0.04784931614995003 -0.2558823525905609 0.9655230045318604
vn 0.305899977684021 -0.3436324000358582 0.8878862261772156
vn 0.305899977684021 -0.3436324000358582 0.8878862261772156
vn 0.305899977684021 -0.3436324000358582 0.8878862261772156
vn 0.5084400773048401 0.2309477925300598 0.8295491933822632
vn 0.5084400773048401 0.2309477925300598 0.8295491933822632
vn 0.5084400773048401 0.2309477925300598 0.8295491933822632
vn 0.8764488697052002 0.3690046966075897 -0.3093103766441345
vn 0.8764488697052002 0.3690046966075897 -0.3093103766441345
vn 0.8764488697052002 0.3690046966075897 -0.3093103766441345
vn 0.1350413858890533 0.5462346076965332 0.8266749978065491
vn 0.1350413858890533 0.5462346076965332 0.8266749978065491
vn 0.1350413858890533 0.5462346076965332 0.8266749978065491
vn 0.3154492974281311 0.6870453953742981 -0.6545688509941101
vn 0.3154492974281311 0.6870453953742981 -0.6545688509941101
vn 0.3154492974281311 0.6870453953742981 -0.6545688509941101
vn -0.3154491782188416 -0.6870458126068115 0.6545684337615967
vn -0.3154491782188416 -0.6870458126068115 0.6545684337615967
vn -0.3154491782188416 -0.6870458126068115 0.6545684337615967
vn 0.0542352981865406 0.9948930740356445 0.08512496203184128
vn 0.0542352981865406 0.9948930740356445 0.08512496203184128
vn 0.0542352981865406 0.9948930740356445 0.08512496203184128
vn -0.5084397196769714 -0.2309484034776688 -0.8295491933822632
vn -0.5084397196769714 -0.2309484034776688 -0.8295491933822632
vn -0.5084397196769714 -0.2309484034776688 -0.8295491933822632
vn 3.466669795670896e-08 0.4429547190666199 -0.8965439796447754
vn 3.466669795670896e-08 0.4429547190666199 -0.8965439796447754
vn 3.466669795670896e-08 0.4429547190666199 -0.8965439796447754
vn -0.8251711130142212 -0.4083989262580872 0.3902600407600403
vn -0.8251711130142212 -0.4083989262580872 0.3902600407600403
vn -0.8251711130142212 -0.4083989262580872 0.3902600407600403
vn -0.8764480948448181 -0.3690059781074524 0.3093111217021942
vn -0.8764480948448181 -0.3690059781074524 0.3093111217021942
vn -0.8764480948448181 -0.3690059781074524 0.3093111217021942
vn 0.4089064300060272 -0.8572561144828796 -0.3129017949104309
vn 0.4089064300060272 -0.8572561144828796 -0.3129017949104309
vn 0.4089064300060272 -0.8572561144828796 -0.3129017949104309
vn -0.2916915714740753 -0.1443658024072647 0.9455551505088806
vn -0.2916915714740753 -0.1443658024072647 0.9455551505088806
vn -0.2916915714740753 -0.1443658024072647 0.9455551505088806
vn -0.5820037722587585 0.409251868724823 0.7026979923248291
vn -0.5820037722587585 0.409251868724823 0.7026979923248291
vn -0.5820037722587585 0.409251868724823 0.7026979923248291
vn -0.1743283420801163 0.3654723763465881 0.9143519997596741
vn -0.1743283420801163 0.3654723763465881 0.9143519997596741
vn -0.1743283420801163 0.3654723763465881 0.9143519997596741
vn 0.1743285208940506 0.3654723465442658 0.9143519997596741
vn 0.1743285208940506 0.3654723465442658 0.9143519997596741
vn 0.1743285208940506 0.3654723465442658 0.9143519997596741
vn -7.505800425633424e-08 -0.9590556025505066 0.2832178771495819
vn -7.505800425633424e-08 -0.9590556025505066 0.2832178771495819
vn -7.505800425633424e-08 -0.9590556025505066 0.2832178771495819
vn 0.04784944653511047 0.2558823227882385 -0.9655230045318604
vn 0.04784944653511047 0.2558823227882385 -0.9655230045318604
vn 0.04784944653511047 0.2558823227882385 -0.9655230045318604
vn -0.4089066386222839 0.8572561740875244 0.3129013478755951
vn -0.4089066386222839 0.8572561740875244 0.3129013478755951
vn -0.4089066386222839 0.8572561740875244 0.3129013478755951
vn 0.4089069366455078 0.8572556972503662 0.3129022121429443
vn 0.4089069366455078 0.8572556972503662 0.3129022121429443
vn 0.4089069366455078 0.8572556972503662 0.3129022121429443
vn -0.4089065194129944 -0.8572563529014587 -0.3129010200500488
vn -0.4089065194129944 -0.8572563529014587 -0.3129010200500488
vn -0.4089065194129944 -0.8572563529014587 -0.3129010200500488
vn 7.505800425633424e-08 0.9590556025505066 -0.2832178771495819
vn 7.505800425633424e-08 0.9590556025505066 -0.2832178771495819
vn 7.505800425633424e-08 0.9590556025505066 -0.2832178771495819
vn -0.1364931762218475 0.2148808687925339 0.9670552611351013
vn -0.1364931762218475 0.2148808687925339 0.9670552611351013
vn -0.1364931762218475 0.2148808687925339 0.9670552611351013
vn -0.825171172618866 0.4083991050720215 -0.3902598321437836
vn -0.825171172618866 0.4083991050720215 -0.3902598321437836
vn -0.825171172618866 0.4083991050720215 -0.3902598321437836
vn 0.8251722455024719 0.4083977043628693 -0.3902590274810791
vn 0.8251722455024719 0.4083977043628693 -0.3902590274810791
vn 0.8251722455024719 0.4083977043628693 -0.3902590274810791
vn -0.2916921973228455 0.1443662047386169 -0.9455549120903015
vn -0.2916921973228455 0.1443662047386169 -0.9455549120903015
vn -0.2916921973228455 0.1443662047386169 -0.9455549120903015
vn -0.174328550696373 -0.3654730618000031 -0.9143517017364502
vn -0.174328550696373 -0.3654730618000031 -0.9143517017364502
vn -0.174328550696373 -0.3654730618000031 -0.9143517017364502
vn 0.1743286401033402 -0.3654730618000031 -0.9143516421318054
vn 0.1743286401033402 -0.3654730618000031 -0.9143516421318054
vn 0.1743286401033402 -0.3654730618000031 -0.9143516421318054
vn 0.2916923761367798 0.144365668296814 -0.9455549120903015
vn 0.2916923761367798 0.144365668296814 -0.9455549120903015
vn 0.2916923761367798 0.144365668296814 -0.9455549120903015
vn -0.3058994710445404 0.3436322808265686 -0.8878864645957947
vn -0.3058994710445404 0.3436322808265686 -0.8878864645957947
vn -0.3058994710445404 0.3436322808265686 -0.8878864645957947
vn -3.466663045514906e-08 -0.442953884601593 0.8965443968772888
vn -3.466663045514906e-08 -0.442953884601593 0.8965443968772888
vn -3.466663045514906e-08 -0.442953884601593 0.8965443968772888
f 55/1/1 61/2/2 51/3/3
f 58/4/4 55/5/5 48/6/6
f 67/7/7 61/8/8 55/9/9
f 55/10/10 51/11/11 48/12/12
f 67/13/13 55/14/14 58/15/15
f 49/16/16 57/17/17 59/18/18
f 65/19/19 68/20/20 67/21/21
f 58/22/22 65/23/23 67/24/24
f 58/25/25 53/26/26 65/27/27
f 58/28/28 48/29/29 53/30/30
f 53/31/31 59/32/32 65/33/33
f 48/34/34 49/35/35 53/36/36
f 67/37/37 68/38/38 61/39/39
f 53/40/40 49/41/41 59/42/42
f 65/43/43 59/44/44 68/45/45
f 48/46/46 51/47/47 49/48/48
f 59/49/49 57/50/50 68/51/51
f 68/52/52 57/53/53 61/54/54
f 61/55/55 57/56/56 51/57/57
f 51/58/58 57/59/59 49/60/60
f 9/61/61 17/62/62 13/63/63
f 17/64/64 26/65/65 13/66/66
f 4/67/67 11/68/68 8/69/69
f 1/70/70 4/71/71 2/72/72
f 6/73/73 11/74/74 4/75/75
f 4/76/76 8/77/77 2/78/78
f 6/79/79 4/80/80 1/81/81
f 24/82/82 27/83/83 18/84/84
f 31/85/85 24/86/86 20/87/87
f 37/88/88 27/89/89 24/90/90
f 24/91/91 18/92/92 20/93/93
f 37/94/94 24/95/95 31/96/96
f 41/97/97 56/98/98 45/99/99
f 30/100/100 41/101/101 36/102/102
f 42/103/103 56/104/104 41/105/105
f 42/106/106 41/107/107 30/108/108
f 64/109/109 52/110/110 46/111/111
f 52/112/112 47/113/113 46/114/114
f 41/115/115 45/116/116 36/117/117
f 22/118/118 38/119/119 25/120/120
f 16/121/121 32/122/122 21/123/123
f 17/124/124 33/125/125 26/126/126
f 9/127/127 16/128/128 21/129/129
f 9/130/130 12/131/131 16/132/132
f 9/133/133 13/134/134 12/135/135
f 21/136/136 33/137/137 17/138/138
f 12/139/139 25/140/140 16/141/141
f 13/142/142 22/143/143 12/144/144
f 21/145/145 32/146/146 33/147/147
f 12/148/148 22/149/149 25/150/150
f 21/151/151 17/152/152 9/153/153
f 33/154/154 38/155/155 26/156/156
f 32/157/157 38/158/158 33/159/159
f 25/160/160 38/161/161 32/162/162
f 13/163/163 26/164/164 22/165/165
f 16/166/166 25/167/167 32/168/168
f 26/169/169 38/170/170 22/171/171
f 7/172/172 15/173/173 10/174/174
f 5/175/175 14/176/176 6/177/177
f 1/178/178 5/179/179 6/180/180
f 1/181/181 3/182/182 5/183/183
f 1/184/184 2/185/185 3/186/186
f 3/187/187 10/188/188 5/189/189
f 2/190/190 7/191/191 3/192/192
f 6/193/193 14/194/194 11/195/195
f 3/196/196 7/197/197 10/198/198
f 5/199/199 10/200/200 14/201/201
f 2/202/202 8/203/203 7/204/204
f 10/205/205 15/206/206 14/207/207
f 14/208/208 15/209/209 11/210/210
f 11/211/211 15/212/212 8/213/213
f 8/214/214 15/215/215 7/216/216
f 19/217/217 23/218/218 29/219/219
f 39/220/220 35/221/221 37/222/222
f 31/223/223 39/224/224 37/225/225
f 31/226/226 28/227/227 39/228/228
f 31/229/229 20/230/230 28/231/231
f 28/232/232 29/233/233 39/234/234
f 20/235/235 19/236/236 28/237/237
f 37/238/238 35/239/239 27/240/240
f 28/241/241 19/242/242 29/243/243
f 39/244/244 29/245/245 35/246/246
f 20/247/247 18/248/248 19/249/249
f 29/250/250 23/251/251 35/252/252
f 35/253/253 23/254/254 27/255/255
f 27/256/256 23/257/257 18/258/258
f 18/259/259 23/260/260 19/261/261
f 43/262/262 62/263/263 44/264/264
f 40/265/265 54/266/266 42/267/267
f 30/268/268 40/269/269 42/270/270
f 30/271/271 34/272/272 40/273/273
f 30/274/274 36/275/275 34/276/276
f 34/277/277 44/278/278 40/279/279
f 36/280/280 43/281/281 34/282/282
f 42/283/283 54/284/284 56/285/285
f 34/286/286 43/287/287 44/288/288
f 56/289/289 62/290/290 45/291/291
f 50/292/292 63/293/293 69/294/294
f 73/295/295 74/296/296 72/297/297
f 54/298/298 62/299/299 56/300/300
f 52/301/301 66/302/302 47/303/303
f 64/304/304 73/305/305 72/306/306
f 44/307/307 62/308/308 54/309/309
f 64/310/310 60/311/311 73/312/312
f 64/313/313 46/314/314 60/315/315
f 72/316/316 66/317/317 52/318/318
f 36/319/319 45/320/320 43/321/321
f 60/322/322 69/323/323 73/324/324
f 46/325/325 50/326/326 60/327/327
f 72/328/328 74/329/329 66/330/330
f 60/331/331 50/332/332 69/333/333
f 40/334/334 44/335/335 54/336/336
f 73/337/337 69/338/338 74/339/339
f 46/340/340 47/341/341 50/342/342
f 69/343/343 63/344/344 74/345/345
f 74/346/346 63/347/347 66/348/348
f 66/349/349 63/350/350 47/351/351
f 47/352/352 63/353/353 50/354/354
f 45/355/355 62/356/356 43/357/357
f 72/358/358 52/359/359 64/360/360
f 125/361/361 116/362/362 121/363/363
f 116/364/364 107/365/365 121/366/366
f 130/367/367 123/368/368 126/369/369
f 132/370/370 130/371/371 131/372/372
f 128/373/373 123/374/374 130/375/375
f 130/376/376 126/377/377 131/378/378
f 128/379/379 130/380/380 132/381/381
f 111/382/382 108/383/383 117/384/384
f 103/385/385 111/386/386 114/387/387
f 101/388/388 108/389/389 111/390/390
f 111/391/391 117/392/392 114/393/393
f 101/394/394 111/395/395 103/396/396
f 93/397/397 83/398/398 89/399/399
f 104/400/400 93/401/401 97/402/402
f 91/403/403 83/404/404 93/405/405
f 91/406/406 93/407/407 104/408/408
f 77/409/409 84/410/410 86/411/411
f 84/412/412 87/413/413 86/414/414
f 93/415/415 89/416/416 97/417/417
f 109/418/418 94/419/419 105/420/420
f 115/421/421 98/422/422 112/423/423
f 116/424/424 100/425/425 107/426/426
f 125/427/427 115/428/428 112/429/429
f 125/430/430 120/431/431 115/432/432
f 125/433/433 121/434/434 120/435/435
f 112/436/436 100/437/437 116/438/438
f 120/439/439 105/440/440 115/441/441
f 121/442/442 109/443/443 120/444/444
f 112/445/445 98/446/446 100/447/447
f 120/448/448 109/449/449 105/450/450
f 112/451/451 116/452/452 125/453/453
f 100/454/454 94/455/455 107/456/456
f 98/457/457 94/458/458 100/459/459
f 105/460/460 94/461/461 98/462/462
f 121/463/463 107/464/464 109/465/465
f 115/466/466 105/467/467 98/468/468
f 107/469/469 94/470/470 109/471/471
f 124/472/472 118/473/473 122/474/474
f 127/475/475 119/476/476 128/477/477
f 132/478/478 127/479/479 128/480/480
f 132/481/481 129/482/482 127/483/483
f 132/484/484 131/485/485 129/486/486
f 129/487/487 122/488/488 127/489/489
f 131/490/490 124/491/491 129/492/492
f 128/493/493 119/494/494 123/495/495
f 129/496/496 124/497/497 122/498/498
f 127/499/499 122/500/500 119/501/501
f 131/502/502 126/503/503 124/504/504
f 122/505/505 118/506/506 119/507/507
f 119/508/508 118/509/509 123/510/510
f 123/511/511 118/512/512 126/513/513
f 126/514/514 118/515/515 124/516/516
f 113/517/517 110/518/518 102/519/519
f 95/520/520 99/521/521 101/522/522
f 103/523/523 95/524/524 101/525/525
f 103/526/526 106/527/527 95/528/528
f 103/529/529 114/530/530 106/531/531
f 106/532/532 102/533/533 95/534/534
f 114/535/535 113/536/536 106/537/537
f 101/538/538 99/539/539 108/540/540
f 106/541/541 113/542/542 102/543/543
f 95/544/544 102/545/545 99/546/546
f 114/547/547 117/548/548 113/549/549
f 102/550/550 110/551/551 99/552/552
f 99/553/553 110/554/554 108/555/555
f 108/556/556 110/557/557 117/558/558
f 117/559/559 110/560/560 113/561/561
f 90/562/562 81/563/563 88/564/564
f 92/565/565 82/566/566 91/567/567
f 104/568/568 92/569/569 91/570/570
f 104/571/571 96/572/572 92/573/573
f 104/574/574 97/575/575 96/576/576
f 96/577/577 88/578/578 92/579/579
f 97/580/580 90/581/581 96/582/582
f 91/583/583 82/584/584 83/585/585
f 96/586/586 90/587/587 88/588/588
f 83/589/589 81/590/590 89/591/591
f 85/592/592 80/593/593 76/594/594
f 70/595/595 71/596/596 75/597/597
f 82/598/598 81/599/599 83/600/600
f 84/601/601 79/602/602 87/603/603
f 77/604/604 70/605/605 75/606/606
f 88/607/607 81/608/608 82/609/609
f 77/610/610 78/611/611 70/612/612
f 77/613/613 86/614/614 78/615/615
f 75/616/616 79/617/617 84/618/618
f 97/619/619 89/620/620 90/621/621
f 78/622/622 76/623/623 70/624/624
f 86/625/625 85/626/626 78/627/627
f 75/628/628 71/629/629 79/630/630
f 78/631/631 85/632/632 76/633/633
f 92/634/634 88/635/635 82/636/636
f 70/637/637 76/638/638 71/639/639
f 86/640/640 87/641/641 85/642/642
f 76/643/643 80/644/644 71/645/645
f 71/646/646 80/647/647 79/648/648
f 79/649/649 80/650/650 87/651/651
f 87/652/652 80/653/653 85/654/654
f 89/655/655 81/656/656 90/657/657
f 75/658/658 84/659/659 77/660/660
